-- Merging decision tree log ---
manifest
ADDED from C:\Users\mario\Escritorio\semestre 20-21\Dispositivos moviles\android-recipes-5ed-master\Chapter_01_Source_Code\1_10_CardViewList\src\main\AndroidManifest.xml:2:1-21:12
INJECTED from C:\Users\mario\Escritorio\semestre 20-21\Dispositivos moviles\android-recipes-5ed-master\Chapter_01_Source_Code\1_10_CardViewList\src\main\AndroidManifest.xml:2:1-21:12
INJECTED from C:\Users\mario\Escritorio\semestre 20-21\Dispositivos moviles\android-recipes-5ed-master\Chapter_01_Source_Code\1_10_CardViewList\src\main\AndroidManifest.xml:2:1-21:12
INJECTED from C:\Users\mario\Escritorio\semestre 20-21\Dispositivos moviles\android-recipes-5ed-master\Chapter_01_Source_Code\1_10_CardViewList\src\main\AndroidManifest.xml:2:1-21:12
MERGED from [com.android.support:appcompat-v7:23.4.0] C:\Users\mario\.gradle\caches\transforms-2\files-2.1\fa1f2605c86b1af1a048c2cd97512538\appcompat-v7-23.4.0\AndroidManifest.xml:17:1-27:12
MERGED from [com.android.support:recyclerview-v7:23.4.0] C:\Users\mario\.gradle\caches\transforms-2\files-2.1\4a3812524aa6994ae2d894f41b551f7f\recyclerview-v7-23.4.0\AndroidManifest.xml:17:1-22:12
MERGED from [com.android.support:percent:23.4.0] C:\Users\mario\.gradle\caches\transforms-2\files-2.1\ae4a31e3299830436efe2f1dbf3ffee2\percent-23.4.0\AndroidManifest.xml:17:1-24:12
MERGED from [com.android.support:palette-v7:23.4.0] C:\Users\mario\.gradle\caches\transforms-2\files-2.1\6bb73abc3016e1c485e424f906ca7904\palette-v7-23.4.0\AndroidManifest.xml:17:1-25:12
MERGED from [com.android.support:animated-vector-drawable:23.4.0] C:\Users\mario\.gradle\caches\transforms-2\files-2.1\d96fdf19e6dc3f48a62a9a96d28cb466\animated-vector-drawable-23.4.0\AndroidManifest.xml:2:1-9:12
MERGED from [com.android.support:support-vector-drawable:23.4.0] C:\Users\mario\.gradle\caches\transforms-2\files-2.1\e4a8182bf213ec7e4da1d86f73f090ef\support-vector-drawable-23.4.0\AndroidManifest.xml:2:1-9:12
MERGED from [com.android.support:support-v4:23.4.0] C:\Users\mario\.gradle\caches\transforms-2\files-2.1\0b3b3a4719ee504265b601c9a4df68a1\support-v4-23.4.0\AndroidManifest.xml:17:1-24:12
MERGED from [com.android.support:cardview-v7:23.4.0] C:\Users\mario\.gradle\caches\transforms-2\files-2.1\003974e7da3703922d60e2050e5d1451\cardview-v7-23.4.0\AndroidManifest.xml:17:1-24:12
INJECTED from C:\Users\mario\Escritorio\semestre 20-21\Dispositivos moviles\android-recipes-5ed-master\Chapter_01_Source_Code\1_10_CardViewList\src\main\AndroidManifest.xml:2:1-21:12
INJECTED from C:\Users\mario\Escritorio\semestre 20-21\Dispositivos moviles\android-recipes-5ed-master\Chapter_01_Source_Code\1_10_CardViewList\src\main\AndroidManifest.xml:2:1-21:12
INJECTED from C:\Users\mario\Escritorio\semestre 20-21\Dispositivos moviles\android-recipes-5ed-master\Chapter_01_Source_Code\1_10_CardViewList\src\main\AndroidManifest.xml:2:1-21:12
	package
		ADDED from C:\Users\mario\Escritorio\semestre 20-21\Dispositivos moviles\android-recipes-5ed-master\Chapter_01_Source_Code\1_10_CardViewList\src\main\AndroidManifest.xml:3:11-46
		INJECTED from C:\Users\mario\Escritorio\semestre 20-21\Dispositivos moviles\android-recipes-5ed-master\Chapter_01_Source_Code\1_10_CardViewList\src\main\AndroidManifest.xml
		INJECTED from C:\Users\mario\Escritorio\semestre 20-21\Dispositivos moviles\android-recipes-5ed-master\Chapter_01_Source_Code\1_10_CardViewList\src\main\AndroidManifest.xml
	android:versionName
		ADDED from C:\Users\mario\Escritorio\semestre 20-21\Dispositivos moviles\android-recipes-5ed-master\Chapter_01_Source_Code\1_10_CardViewList\src\main\AndroidManifest.xml:5:11-36
		INJECTED from C:\Users\mario\Escritorio\semestre 20-21\Dispositivos moviles\android-recipes-5ed-master\Chapter_01_Source_Code\1_10_CardViewList\src\main\AndroidManifest.xml
		INJECTED from C:\Users\mario\Escritorio\semestre 20-21\Dispositivos moviles\android-recipes-5ed-master\Chapter_01_Source_Code\1_10_CardViewList\src\main\AndroidManifest.xml
	xmlns:android
		ADDED from C:\Users\mario\Escritorio\semestre 20-21\Dispositivos moviles\android-recipes-5ed-master\Chapter_01_Source_Code\1_10_CardViewList\src\main\AndroidManifest.xml:2:11-69
	android:versionCode
		ADDED from C:\Users\mario\Escritorio\semestre 20-21\Dispositivos moviles\android-recipes-5ed-master\Chapter_01_Source_Code\1_10_CardViewList\src\main\AndroidManifest.xml:4:11-34
		INJECTED from C:\Users\mario\Escritorio\semestre 20-21\Dispositivos moviles\android-recipes-5ed-master\Chapter_01_Source_Code\1_10_CardViewList\src\main\AndroidManifest.xml
		INJECTED from C:\Users\mario\Escritorio\semestre 20-21\Dispositivos moviles\android-recipes-5ed-master\Chapter_01_Source_Code\1_10_CardViewList\src\main\AndroidManifest.xml
application
ADDED from C:\Users\mario\Escritorio\semestre 20-21\Dispositivos moviles\android-recipes-5ed-master\Chapter_01_Source_Code\1_10_CardViewList\src\main\AndroidManifest.xml:7:5-20:19
MERGED from [com.android.support:appcompat-v7:23.4.0] C:\Users\mario\.gradle\caches\transforms-2\files-2.1\fa1f2605c86b1af1a048c2cd97512538\appcompat-v7-23.4.0\AndroidManifest.xml:25:5-20
MERGED from [com.android.support:appcompat-v7:23.4.0] C:\Users\mario\.gradle\caches\transforms-2\files-2.1\fa1f2605c86b1af1a048c2cd97512538\appcompat-v7-23.4.0\AndroidManifest.xml:25:5-20
MERGED from [com.android.support:percent:23.4.0] C:\Users\mario\.gradle\caches\transforms-2\files-2.1\ae4a31e3299830436efe2f1dbf3ffee2\percent-23.4.0\AndroidManifest.xml:22:5-20
MERGED from [com.android.support:percent:23.4.0] C:\Users\mario\.gradle\caches\transforms-2\files-2.1\ae4a31e3299830436efe2f1dbf3ffee2\percent-23.4.0\AndroidManifest.xml:22:5-20
MERGED from [com.android.support:palette-v7:23.4.0] C:\Users\mario\.gradle\caches\transforms-2\files-2.1\6bb73abc3016e1c485e424f906ca7904\palette-v7-23.4.0\AndroidManifest.xml:22:5-23:19
MERGED from [com.android.support:palette-v7:23.4.0] C:\Users\mario\.gradle\caches\transforms-2\files-2.1\6bb73abc3016e1c485e424f906ca7904\palette-v7-23.4.0\AndroidManifest.xml:22:5-23:19
MERGED from [com.android.support:animated-vector-drawable:23.4.0] C:\Users\mario\.gradle\caches\transforms-2\files-2.1\d96fdf19e6dc3f48a62a9a96d28cb466\animated-vector-drawable-23.4.0\AndroidManifest.xml:7:5-20
MERGED from [com.android.support:animated-vector-drawable:23.4.0] C:\Users\mario\.gradle\caches\transforms-2\files-2.1\d96fdf19e6dc3f48a62a9a96d28cb466\animated-vector-drawable-23.4.0\AndroidManifest.xml:7:5-20
MERGED from [com.android.support:support-vector-drawable:23.4.0] C:\Users\mario\.gradle\caches\transforms-2\files-2.1\e4a8182bf213ec7e4da1d86f73f090ef\support-vector-drawable-23.4.0\AndroidManifest.xml:7:5-20
MERGED from [com.android.support:support-vector-drawable:23.4.0] C:\Users\mario\.gradle\caches\transforms-2\files-2.1\e4a8182bf213ec7e4da1d86f73f090ef\support-vector-drawable-23.4.0\AndroidManifest.xml:7:5-20
MERGED from [com.android.support:support-v4:23.4.0] C:\Users\mario\.gradle\caches\transforms-2\files-2.1\0b3b3a4719ee504265b601c9a4df68a1\support-v4-23.4.0\AndroidManifest.xml:22:5-20
MERGED from [com.android.support:support-v4:23.4.0] C:\Users\mario\.gradle\caches\transforms-2\files-2.1\0b3b3a4719ee504265b601c9a4df68a1\support-v4-23.4.0\AndroidManifest.xml:22:5-20
MERGED from [com.android.support:cardview-v7:23.4.0] C:\Users\mario\.gradle\caches\transforms-2\files-2.1\003974e7da3703922d60e2050e5d1451\cardview-v7-23.4.0\AndroidManifest.xml:22:5-20
MERGED from [com.android.support:cardview-v7:23.4.0] C:\Users\mario\.gradle\caches\transforms-2\files-2.1\003974e7da3703922d60e2050e5d1451\cardview-v7-23.4.0\AndroidManifest.xml:22:5-20
	android:label
		ADDED from C:\Users\mario\Escritorio\semestre 20-21\Dispositivos moviles\android-recipes-5ed-master\Chapter_01_Source_Code\1_10_CardViewList\src\main\AndroidManifest.xml:10:9-41
	android:icon
		ADDED from C:\Users\mario\Escritorio\semestre 20-21\Dispositivos moviles\android-recipes-5ed-master\Chapter_01_Source_Code\1_10_CardViewList\src\main\AndroidManifest.xml:8:9-45
	android:theme
		ADDED from C:\Users\mario\Escritorio\semestre 20-21\Dispositivos moviles\android-recipes-5ed-master\Chapter_01_Source_Code\1_10_CardViewList\src\main\AndroidManifest.xml:9:9-40
activity#com.examples.cardviewlist.CardViewActivity
ADDED from C:\Users\mario\Escritorio\semestre 20-21\Dispositivos moviles\android-recipes-5ed-master\Chapter_01_Source_Code\1_10_CardViewList\src\main\AndroidManifest.xml:11:9-18:20
	android:label
		ADDED from C:\Users\mario\Escritorio\semestre 20-21\Dispositivos moviles\android-recipes-5ed-master\Chapter_01_Source_Code\1_10_CardViewList\src\main\AndroidManifest.xml:13:13-45
	android:name
		ADDED from C:\Users\mario\Escritorio\semestre 20-21\Dispositivos moviles\android-recipes-5ed-master\Chapter_01_Source_Code\1_10_CardViewList\src\main\AndroidManifest.xml:12:13-70
intent-filter#action:name:android.intent.action.MAIN+category:name:android.intent.category.LAUNCHER
ADDED from C:\Users\mario\Escritorio\semestre 20-21\Dispositivos moviles\android-recipes-5ed-master\Chapter_01_Source_Code\1_10_CardViewList\src\main\AndroidManifest.xml:14:13-17:29
action#android.intent.action.MAIN
ADDED from C:\Users\mario\Escritorio\semestre 20-21\Dispositivos moviles\android-recipes-5ed-master\Chapter_01_Source_Code\1_10_CardViewList\src\main\AndroidManifest.xml:15:17-68
	android:name
		ADDED from C:\Users\mario\Escritorio\semestre 20-21\Dispositivos moviles\android-recipes-5ed-master\Chapter_01_Source_Code\1_10_CardViewList\src\main\AndroidManifest.xml:15:25-66
category#android.intent.category.LAUNCHER
ADDED from C:\Users\mario\Escritorio\semestre 20-21\Dispositivos moviles\android-recipes-5ed-master\Chapter_01_Source_Code\1_10_CardViewList\src\main\AndroidManifest.xml:16:17-76
	android:name
		ADDED from C:\Users\mario\Escritorio\semestre 20-21\Dispositivos moviles\android-recipes-5ed-master\Chapter_01_Source_Code\1_10_CardViewList\src\main\AndroidManifest.xml:16:27-74
uses-sdk
INJECTED from C:\Users\mario\Escritorio\semestre 20-21\Dispositivos moviles\android-recipes-5ed-master\Chapter_01_Source_Code\1_10_CardViewList\src\main\AndroidManifest.xml reason: use-sdk injection requested
INJECTED from C:\Users\mario\Escritorio\semestre 20-21\Dispositivos moviles\android-recipes-5ed-master\Chapter_01_Source_Code\1_10_CardViewList\src\main\AndroidManifest.xml
INJECTED from C:\Users\mario\Escritorio\semestre 20-21\Dispositivos moviles\android-recipes-5ed-master\Chapter_01_Source_Code\1_10_CardViewList\src\main\AndroidManifest.xml
MERGED from [com.android.support:appcompat-v7:23.4.0] C:\Users\mario\.gradle\caches\transforms-2\files-2.1\fa1f2605c86b1af1a048c2cd97512538\appcompat-v7-23.4.0\AndroidManifest.xml:21:5-23:78
MERGED from [com.android.support:appcompat-v7:23.4.0] C:\Users\mario\.gradle\caches\transforms-2\files-2.1\fa1f2605c86b1af1a048c2cd97512538\appcompat-v7-23.4.0\AndroidManifest.xml:21:5-23:78
MERGED from [com.android.support:recyclerview-v7:23.4.0] C:\Users\mario\.gradle\caches\transforms-2\files-2.1\4a3812524aa6994ae2d894f41b551f7f\recyclerview-v7-23.4.0\AndroidManifest.xml:20:5-43
MERGED from [com.android.support:recyclerview-v7:23.4.0] C:\Users\mario\.gradle\caches\transforms-2\files-2.1\4a3812524aa6994ae2d894f41b551f7f\recyclerview-v7-23.4.0\AndroidManifest.xml:20:5-43
MERGED from [com.android.support:percent:23.4.0] C:\Users\mario\.gradle\caches\transforms-2\files-2.1\ae4a31e3299830436efe2f1dbf3ffee2\percent-23.4.0\AndroidManifest.xml:20:5-43
MERGED from [com.android.support:percent:23.4.0] C:\Users\mario\.gradle\caches\transforms-2\files-2.1\ae4a31e3299830436efe2f1dbf3ffee2\percent-23.4.0\AndroidManifest.xml:20:5-43
MERGED from [com.android.support:palette-v7:23.4.0] C:\Users\mario\.gradle\caches\transforms-2\files-2.1\6bb73abc3016e1c485e424f906ca7904\palette-v7-23.4.0\AndroidManifest.xml:20:5-43
MERGED from [com.android.support:palette-v7:23.4.0] C:\Users\mario\.gradle\caches\transforms-2\files-2.1\6bb73abc3016e1c485e424f906ca7904\palette-v7-23.4.0\AndroidManifest.xml:20:5-43
MERGED from [com.android.support:animated-vector-drawable:23.4.0] C:\Users\mario\.gradle\caches\transforms-2\files-2.1\d96fdf19e6dc3f48a62a9a96d28cb466\animated-vector-drawable-23.4.0\AndroidManifest.xml:5:5-44
MERGED from [com.android.support:animated-vector-drawable:23.4.0] C:\Users\mario\.gradle\caches\transforms-2\files-2.1\d96fdf19e6dc3f48a62a9a96d28cb466\animated-vector-drawable-23.4.0\AndroidManifest.xml:5:5-44
MERGED from [com.android.support:support-vector-drawable:23.4.0] C:\Users\mario\.gradle\caches\transforms-2\files-2.1\e4a8182bf213ec7e4da1d86f73f090ef\support-vector-drawable-23.4.0\AndroidManifest.xml:5:5-43
MERGED from [com.android.support:support-vector-drawable:23.4.0] C:\Users\mario\.gradle\caches\transforms-2\files-2.1\e4a8182bf213ec7e4da1d86f73f090ef\support-vector-drawable-23.4.0\AndroidManifest.xml:5:5-43
MERGED from [com.android.support:support-v4:23.4.0] C:\Users\mario\.gradle\caches\transforms-2\files-2.1\0b3b3a4719ee504265b601c9a4df68a1\support-v4-23.4.0\AndroidManifest.xml:20:5-43
MERGED from [com.android.support:support-v4:23.4.0] C:\Users\mario\.gradle\caches\transforms-2\files-2.1\0b3b3a4719ee504265b601c9a4df68a1\support-v4-23.4.0\AndroidManifest.xml:20:5-43
MERGED from [com.android.support:cardview-v7:23.4.0] C:\Users\mario\.gradle\caches\transforms-2\files-2.1\003974e7da3703922d60e2050e5d1451\cardview-v7-23.4.0\AndroidManifest.xml:20:5-43
MERGED from [com.android.support:cardview-v7:23.4.0] C:\Users\mario\.gradle\caches\transforms-2\files-2.1\003974e7da3703922d60e2050e5d1451\cardview-v7-23.4.0\AndroidManifest.xml:20:5-43
INJECTED from C:\Users\mario\Escritorio\semestre 20-21\Dispositivos moviles\android-recipes-5ed-master\Chapter_01_Source_Code\1_10_CardViewList\src\main\AndroidManifest.xml
INJECTED from C:\Users\mario\Escritorio\semestre 20-21\Dispositivos moviles\android-recipes-5ed-master\Chapter_01_Source_Code\1_10_CardViewList\src\main\AndroidManifest.xml
	tools:overrideLibrary
		ADDED from [com.android.support:appcompat-v7:23.4.0] C:\Users\mario\.gradle\caches\transforms-2\files-2.1\fa1f2605c86b1af1a048c2cd97512538\appcompat-v7-23.4.0\AndroidManifest.xml:23:9-75
	android:targetSdkVersion
		INJECTED from C:\Users\mario\Escritorio\semestre 20-21\Dispositivos moviles\android-recipes-5ed-master\Chapter_01_Source_Code\1_10_CardViewList\src\main\AndroidManifest.xml
		ADDED from C:\Users\mario\Escritorio\semestre 20-21\Dispositivos moviles\android-recipes-5ed-master\Chapter_01_Source_Code\1_10_CardViewList\src\main\AndroidManifest.xml
		INJECTED from C:\Users\mario\Escritorio\semestre 20-21\Dispositivos moviles\android-recipes-5ed-master\Chapter_01_Source_Code\1_10_CardViewList\src\main\AndroidManifest.xml
	android:minSdkVersion
		INJECTED from C:\Users\mario\Escritorio\semestre 20-21\Dispositivos moviles\android-recipes-5ed-master\Chapter_01_Source_Code\1_10_CardViewList\src\main\AndroidManifest.xml
		ADDED from C:\Users\mario\Escritorio\semestre 20-21\Dispositivos moviles\android-recipes-5ed-master\Chapter_01_Source_Code\1_10_CardViewList\src\main\AndroidManifest.xml
		INJECTED from C:\Users\mario\Escritorio\semestre 20-21\Dispositivos moviles\android-recipes-5ed-master\Chapter_01_Source_Code\1_10_CardViewList\src\main\AndroidManifest.xml
