-- Merging decision tree log ---
manifest
ADDED from C:\Users\mario\Escritorio\semestre 20-21\Dispositivos moviles\android-recipes-5ed-master\Source_Code_Ch_6\6_06_ShareProvider\src\main\AndroidManifest.xml:1:1-20:12
INJECTED from C:\Users\mario\Escritorio\semestre 20-21\Dispositivos moviles\android-recipes-5ed-master\Source_Code_Ch_6\6_06_ShareProvider\src\main\AndroidManifest.xml:1:1-20:12
INJECTED from C:\Users\mario\Escritorio\semestre 20-21\Dispositivos moviles\android-recipes-5ed-master\Source_Code_Ch_6\6_06_ShareProvider\src\main\AndroidManifest.xml:1:1-20:12
INJECTED from C:\Users\mario\Escritorio\semestre 20-21\Dispositivos moviles\android-recipes-5ed-master\Source_Code_Ch_6\6_06_ShareProvider\src\main\AndroidManifest.xml:1:1-20:12
MERGED from [com.android.support:support-v4:24.1.1] C:\Users\mario\.gradle\caches\transforms-2\files-2.1\94a79bdb64a80dac08a6abc44e3b2100\support-v4-24.1.1\AndroidManifest.xml:17:1-27:12
INJECTED from C:\Users\mario\Escritorio\semestre 20-21\Dispositivos moviles\android-recipes-5ed-master\Source_Code_Ch_6\6_06_ShareProvider\src\main\AndroidManifest.xml:1:1-20:12
INJECTED from C:\Users\mario\Escritorio\semestre 20-21\Dispositivos moviles\android-recipes-5ed-master\Source_Code_Ch_6\6_06_ShareProvider\src\main\AndroidManifest.xml:1:1-20:12
INJECTED from C:\Users\mario\Escritorio\semestre 20-21\Dispositivos moviles\android-recipes-5ed-master\Source_Code_Ch_6\6_06_ShareProvider\src\main\AndroidManifest.xml:1:1-20:12
	package
		ADDED from C:\Users\mario\Escritorio\semestre 20-21\Dispositivos moviles\android-recipes-5ed-master\Source_Code_Ch_6\6_06_ShareProvider\src\main\AndroidManifest.xml:2:11-46
		INJECTED from C:\Users\mario\Escritorio\semestre 20-21\Dispositivos moviles\android-recipes-5ed-master\Source_Code_Ch_6\6_06_ShareProvider\src\main\AndroidManifest.xml
		INJECTED from C:\Users\mario\Escritorio\semestre 20-21\Dispositivos moviles\android-recipes-5ed-master\Source_Code_Ch_6\6_06_ShareProvider\src\main\AndroidManifest.xml
	android:versionName
		ADDED from C:\Users\mario\Escritorio\semestre 20-21\Dispositivos moviles\android-recipes-5ed-master\Source_Code_Ch_6\6_06_ShareProvider\src\main\AndroidManifest.xml:4:11-36
		INJECTED from C:\Users\mario\Escritorio\semestre 20-21\Dispositivos moviles\android-recipes-5ed-master\Source_Code_Ch_6\6_06_ShareProvider\src\main\AndroidManifest.xml
		INJECTED from C:\Users\mario\Escritorio\semestre 20-21\Dispositivos moviles\android-recipes-5ed-master\Source_Code_Ch_6\6_06_ShareProvider\src\main\AndroidManifest.xml
	xmlns:android
		ADDED from C:\Users\mario\Escritorio\semestre 20-21\Dispositivos moviles\android-recipes-5ed-master\Source_Code_Ch_6\6_06_ShareProvider\src\main\AndroidManifest.xml:1:11-69
	android:versionCode
		ADDED from C:\Users\mario\Escritorio\semestre 20-21\Dispositivos moviles\android-recipes-5ed-master\Source_Code_Ch_6\6_06_ShareProvider\src\main\AndroidManifest.xml:3:11-34
		INJECTED from C:\Users\mario\Escritorio\semestre 20-21\Dispositivos moviles\android-recipes-5ed-master\Source_Code_Ch_6\6_06_ShareProvider\src\main\AndroidManifest.xml
		INJECTED from C:\Users\mario\Escritorio\semestre 20-21\Dispositivos moviles\android-recipes-5ed-master\Source_Code_Ch_6\6_06_ShareProvider\src\main\AndroidManifest.xml
application
ADDED from C:\Users\mario\Escritorio\semestre 20-21\Dispositivos moviles\android-recipes-5ed-master\Source_Code_Ch_6\6_06_ShareProvider\src\main\AndroidManifest.xml:6:5-18:19
MERGED from [com.android.support:support-v4:24.1.1] C:\Users\mario\.gradle\caches\transforms-2\files-2.1\94a79bdb64a80dac08a6abc44e3b2100\support-v4-24.1.1\AndroidManifest.xml:25:5-20
MERGED from [com.android.support:support-v4:24.1.1] C:\Users\mario\.gradle\caches\transforms-2\files-2.1\94a79bdb64a80dac08a6abc44e3b2100\support-v4-24.1.1\AndroidManifest.xml:25:5-20
	android:label
		ADDED from C:\Users\mario\Escritorio\semestre 20-21\Dispositivos moviles\android-recipes-5ed-master\Source_Code_Ch_6\6_06_ShareProvider\src\main\AndroidManifest.xml:8:9-41
	android:icon
		ADDED from C:\Users\mario\Escritorio\semestre 20-21\Dispositivos moviles\android-recipes-5ed-master\Source_Code_Ch_6\6_06_ShareProvider\src\main\AndroidManifest.xml:7:9-45
	android:theme
		ADDED from C:\Users\mario\Escritorio\semestre 20-21\Dispositivos moviles\android-recipes-5ed-master\Source_Code_Ch_6\6_06_ShareProvider\src\main\AndroidManifest.xml:9:9-40
activity#com.example.shareprovider.MainActivity
ADDED from C:\Users\mario\Escritorio\semestre 20-21\Dispositivos moviles\android-recipes-5ed-master\Source_Code_Ch_6\6_06_ShareProvider\src\main\AndroidManifest.xml:10:9-17:20
	android:label
		ADDED from C:\Users\mario\Escritorio\semestre 20-21\Dispositivos moviles\android-recipes-5ed-master\Source_Code_Ch_6\6_06_ShareProvider\src\main\AndroidManifest.xml:12:13-56
	android:name
		ADDED from C:\Users\mario\Escritorio\semestre 20-21\Dispositivos moviles\android-recipes-5ed-master\Source_Code_Ch_6\6_06_ShareProvider\src\main\AndroidManifest.xml:11:13-41
intent-filter#action:name:android.intent.action.MAIN+category:name:android.intent.category.LAUNCHER
ADDED from C:\Users\mario\Escritorio\semestre 20-21\Dispositivos moviles\android-recipes-5ed-master\Source_Code_Ch_6\6_06_ShareProvider\src\main\AndroidManifest.xml:13:13-16:29
action#android.intent.action.MAIN
ADDED from C:\Users\mario\Escritorio\semestre 20-21\Dispositivos moviles\android-recipes-5ed-master\Source_Code_Ch_6\6_06_ShareProvider\src\main\AndroidManifest.xml:14:17-68
	android:name
		ADDED from C:\Users\mario\Escritorio\semestre 20-21\Dispositivos moviles\android-recipes-5ed-master\Source_Code_Ch_6\6_06_ShareProvider\src\main\AndroidManifest.xml:14:25-66
category#android.intent.category.LAUNCHER
ADDED from C:\Users\mario\Escritorio\semestre 20-21\Dispositivos moviles\android-recipes-5ed-master\Source_Code_Ch_6\6_06_ShareProvider\src\main\AndroidManifest.xml:15:17-76
	android:name
		ADDED from C:\Users\mario\Escritorio\semestre 20-21\Dispositivos moviles\android-recipes-5ed-master\Source_Code_Ch_6\6_06_ShareProvider\src\main\AndroidManifest.xml:15:27-74
uses-sdk
INJECTED from C:\Users\mario\Escritorio\semestre 20-21\Dispositivos moviles\android-recipes-5ed-master\Source_Code_Ch_6\6_06_ShareProvider\src\main\AndroidManifest.xml reason: use-sdk injection requested
INJECTED from C:\Users\mario\Escritorio\semestre 20-21\Dispositivos moviles\android-recipes-5ed-master\Source_Code_Ch_6\6_06_ShareProvider\src\main\AndroidManifest.xml
INJECTED from C:\Users\mario\Escritorio\semestre 20-21\Dispositivos moviles\android-recipes-5ed-master\Source_Code_Ch_6\6_06_ShareProvider\src\main\AndroidManifest.xml
MERGED from [com.android.support:support-v4:24.1.1] C:\Users\mario\.gradle\caches\transforms-2\files-2.1\94a79bdb64a80dac08a6abc44e3b2100\support-v4-24.1.1\AndroidManifest.xml:21:5-23:54
MERGED from [com.android.support:support-v4:24.1.1] C:\Users\mario\.gradle\caches\transforms-2\files-2.1\94a79bdb64a80dac08a6abc44e3b2100\support-v4-24.1.1\AndroidManifest.xml:21:5-23:54
INJECTED from C:\Users\mario\Escritorio\semestre 20-21\Dispositivos moviles\android-recipes-5ed-master\Source_Code_Ch_6\6_06_ShareProvider\src\main\AndroidManifest.xml
INJECTED from C:\Users\mario\Escritorio\semestre 20-21\Dispositivos moviles\android-recipes-5ed-master\Source_Code_Ch_6\6_06_ShareProvider\src\main\AndroidManifest.xml
	tools:overrideLibrary
		ADDED from [com.android.support:support-v4:24.1.1] C:\Users\mario\.gradle\caches\transforms-2\files-2.1\94a79bdb64a80dac08a6abc44e3b2100\support-v4-24.1.1\AndroidManifest.xml:23:9-51
	android:targetSdkVersion
		INJECTED from C:\Users\mario\Escritorio\semestre 20-21\Dispositivos moviles\android-recipes-5ed-master\Source_Code_Ch_6\6_06_ShareProvider\src\main\AndroidManifest.xml
		ADDED from C:\Users\mario\Escritorio\semestre 20-21\Dispositivos moviles\android-recipes-5ed-master\Source_Code_Ch_6\6_06_ShareProvider\src\main\AndroidManifest.xml
		INJECTED from C:\Users\mario\Escritorio\semestre 20-21\Dispositivos moviles\android-recipes-5ed-master\Source_Code_Ch_6\6_06_ShareProvider\src\main\AndroidManifest.xml
	android:minSdkVersion
		INJECTED from C:\Users\mario\Escritorio\semestre 20-21\Dispositivos moviles\android-recipes-5ed-master\Source_Code_Ch_6\6_06_ShareProvider\src\main\AndroidManifest.xml
		ADDED from C:\Users\mario\Escritorio\semestre 20-21\Dispositivos moviles\android-recipes-5ed-master\Source_Code_Ch_6\6_06_ShareProvider\src\main\AndroidManifest.xml
		INJECTED from C:\Users\mario\Escritorio\semestre 20-21\Dispositivos moviles\android-recipes-5ed-master\Source_Code_Ch_6\6_06_ShareProvider\src\main\AndroidManifest.xml
