-- Merging decision tree log ---
manifest
ADDED from C:\Users\mario\Escritorio\semestre 20-21\Dispositivos moviles\android-recipes-5ed-master\Code_Samples_Chapter_2\2_01_CoordinatorLayoutWithToolbar\src\main\AndroidManifest.xml:2:1-33:12
INJECTED from C:\Users\mario\Escritorio\semestre 20-21\Dispositivos moviles\android-recipes-5ed-master\Code_Samples_Chapter_2\2_01_CoordinatorLayoutWithToolbar\src\main\AndroidManifest.xml:2:1-33:12
INJECTED from C:\Users\mario\Escritorio\semestre 20-21\Dispositivos moviles\android-recipes-5ed-master\Code_Samples_Chapter_2\2_01_CoordinatorLayoutWithToolbar\src\main\AndroidManifest.xml:2:1-33:12
INJECTED from C:\Users\mario\Escritorio\semestre 20-21\Dispositivos moviles\android-recipes-5ed-master\Code_Samples_Chapter_2\2_01_CoordinatorLayoutWithToolbar\src\main\AndroidManifest.xml:2:1-33:12
MERGED from [com.android.support.constraint:constraint-layout:1.0.2] C:\Users\mario\.gradle\caches\transforms-2\files-2.1\b703eeb50455644a9f19e020c78f6a7d\constraint-layout-1.0.2\AndroidManifest.xml:2:1-11:12
MERGED from [com.android.support:design:24.2.0] C:\Users\mario\.gradle\caches\transforms-2\files-2.1\9bc8876ce161ddb2afb061d80692fbda\design-24.2.0\AndroidManifest.xml:17:1-24:12
MERGED from [com.android.support:appcompat-v7:24.2.0] C:\Users\mario\.gradle\caches\transforms-2\files-2.1\2aa129a25abc8722bb5e1735a1f49a5e\appcompat-v7-24.2.0\AndroidManifest.xml:17:1-27:12
MERGED from [com.android.support:animated-vector-drawable:24.2.0] C:\Users\mario\.gradle\caches\transforms-2\files-2.1\1e10b7c8742994fa78a6ea8ca3af6d29\animated-vector-drawable-24.2.0\AndroidManifest.xml:17:1-24:12
MERGED from [com.android.support:support-vector-drawable:24.2.0] C:\Users\mario\.gradle\caches\transforms-2\files-2.1\05827b50c1087358ece872f97f332a52\support-vector-drawable-24.2.0\AndroidManifest.xml:17:1-25:12
MERGED from [com.android.support:support-v4:24.2.0] C:\Users\mario\.gradle\caches\transforms-2\files-2.1\b0e55e3ddaf5656c134668b134d362b4\support-v4-24.2.0\AndroidManifest.xml:17:1-27:12
MERGED from [com.android.support:recyclerview-v7:24.2.0] C:\Users\mario\.gradle\caches\transforms-2\files-2.1\e33e394c6030b3065b00462e23b3d39e\recyclerview-v7-24.2.0\AndroidManifest.xml:17:1-22:12
MERGED from [com.android.support:support-fragment:24.2.0] C:\Users\mario\.gradle\caches\transforms-2\files-2.1\c5c1f0618563402a555c964600c2c96f\support-fragment-24.2.0\AndroidManifest.xml:17:1-27:12
MERGED from [com.android.support:support-core-utils:24.2.0] C:\Users\mario\.gradle\caches\transforms-2\files-2.1\77c604c47a29aa817e38bacf44f8566c\support-core-utils-24.2.0\AndroidManifest.xml:17:1-27:12
MERGED from [com.android.support:support-media-compat:24.2.0] C:\Users\mario\.gradle\caches\transforms-2\files-2.1\ec78044e96832e0b0535a1998dfe9a11\support-media-compat-24.2.0\AndroidManifest.xml:17:1-27:12
MERGED from [com.android.support:support-core-ui:24.2.0] C:\Users\mario\.gradle\caches\transforms-2\files-2.1\122a60a1be2d7350a0d1ccad64475eed\support-core-ui-24.2.0\AndroidManifest.xml:17:1-27:12
MERGED from [com.android.support:support-compat:24.2.0] C:\Users\mario\.gradle\caches\transforms-2\files-2.1\497b042d7fde88db6c2bd366aa27826c\support-compat-24.2.0\AndroidManifest.xml:17:1-27:12
INJECTED from C:\Users\mario\Escritorio\semestre 20-21\Dispositivos moviles\android-recipes-5ed-master\Code_Samples_Chapter_2\2_01_CoordinatorLayoutWithToolbar\src\main\AndroidManifest.xml:2:1-33:12
INJECTED from C:\Users\mario\Escritorio\semestre 20-21\Dispositivos moviles\android-recipes-5ed-master\Code_Samples_Chapter_2\2_01_CoordinatorLayoutWithToolbar\src\main\AndroidManifest.xml:2:1-33:12
INJECTED from C:\Users\mario\Escritorio\semestre 20-21\Dispositivos moviles\android-recipes-5ed-master\Code_Samples_Chapter_2\2_01_CoordinatorLayoutWithToolbar\src\main\AndroidManifest.xml:2:1-33:12
	package
		ADDED from C:\Users\mario\Escritorio\semestre 20-21\Dispositivos moviles\android-recipes-5ed-master\Code_Samples_Chapter_2\2_01_CoordinatorLayoutWithToolbar\src\main\AndroidManifest.xml:3:11-49
		INJECTED from C:\Users\mario\Escritorio\semestre 20-21\Dispositivos moviles\android-recipes-5ed-master\Code_Samples_Chapter_2\2_01_CoordinatorLayoutWithToolbar\src\main\AndroidManifest.xml
		INJECTED from C:\Users\mario\Escritorio\semestre 20-21\Dispositivos moviles\android-recipes-5ed-master\Code_Samples_Chapter_2\2_01_CoordinatorLayoutWithToolbar\src\main\AndroidManifest.xml
	android:versionName
		ADDED from C:\Users\mario\Escritorio\semestre 20-21\Dispositivos moviles\android-recipes-5ed-master\Code_Samples_Chapter_2\2_01_CoordinatorLayoutWithToolbar\src\main\AndroidManifest.xml:5:11-36
		INJECTED from C:\Users\mario\Escritorio\semestre 20-21\Dispositivos moviles\android-recipes-5ed-master\Code_Samples_Chapter_2\2_01_CoordinatorLayoutWithToolbar\src\main\AndroidManifest.xml
		INJECTED from C:\Users\mario\Escritorio\semestre 20-21\Dispositivos moviles\android-recipes-5ed-master\Code_Samples_Chapter_2\2_01_CoordinatorLayoutWithToolbar\src\main\AndroidManifest.xml
	xmlns:android
		ADDED from C:\Users\mario\Escritorio\semestre 20-21\Dispositivos moviles\android-recipes-5ed-master\Code_Samples_Chapter_2\2_01_CoordinatorLayoutWithToolbar\src\main\AndroidManifest.xml:2:11-69
	android:versionCode
		ADDED from C:\Users\mario\Escritorio\semestre 20-21\Dispositivos moviles\android-recipes-5ed-master\Code_Samples_Chapter_2\2_01_CoordinatorLayoutWithToolbar\src\main\AndroidManifest.xml:4:11-34
		INJECTED from C:\Users\mario\Escritorio\semestre 20-21\Dispositivos moviles\android-recipes-5ed-master\Code_Samples_Chapter_2\2_01_CoordinatorLayoutWithToolbar\src\main\AndroidManifest.xml
		INJECTED from C:\Users\mario\Escritorio\semestre 20-21\Dispositivos moviles\android-recipes-5ed-master\Code_Samples_Chapter_2\2_01_CoordinatorLayoutWithToolbar\src\main\AndroidManifest.xml
application
ADDED from C:\Users\mario\Escritorio\semestre 20-21\Dispositivos moviles\android-recipes-5ed-master\Code_Samples_Chapter_2\2_01_CoordinatorLayoutWithToolbar\src\main\AndroidManifest.xml:7:5-31:19
MERGED from [com.android.support.constraint:constraint-layout:1.0.2] C:\Users\mario\.gradle\caches\transforms-2\files-2.1\b703eeb50455644a9f19e020c78f6a7d\constraint-layout-1.0.2\AndroidManifest.xml:9:5-20
MERGED from [com.android.support.constraint:constraint-layout:1.0.2] C:\Users\mario\.gradle\caches\transforms-2\files-2.1\b703eeb50455644a9f19e020c78f6a7d\constraint-layout-1.0.2\AndroidManifest.xml:9:5-20
MERGED from [com.android.support:design:24.2.0] C:\Users\mario\.gradle\caches\transforms-2\files-2.1\9bc8876ce161ddb2afb061d80692fbda\design-24.2.0\AndroidManifest.xml:22:5-20
MERGED from [com.android.support:design:24.2.0] C:\Users\mario\.gradle\caches\transforms-2\files-2.1\9bc8876ce161ddb2afb061d80692fbda\design-24.2.0\AndroidManifest.xml:22:5-20
MERGED from [com.android.support:appcompat-v7:24.2.0] C:\Users\mario\.gradle\caches\transforms-2\files-2.1\2aa129a25abc8722bb5e1735a1f49a5e\appcompat-v7-24.2.0\AndroidManifest.xml:25:5-20
MERGED from [com.android.support:appcompat-v7:24.2.0] C:\Users\mario\.gradle\caches\transforms-2\files-2.1\2aa129a25abc8722bb5e1735a1f49a5e\appcompat-v7-24.2.0\AndroidManifest.xml:25:5-20
MERGED from [com.android.support:animated-vector-drawable:24.2.0] C:\Users\mario\.gradle\caches\transforms-2\files-2.1\1e10b7c8742994fa78a6ea8ca3af6d29\animated-vector-drawable-24.2.0\AndroidManifest.xml:22:5-20
MERGED from [com.android.support:animated-vector-drawable:24.2.0] C:\Users\mario\.gradle\caches\transforms-2\files-2.1\1e10b7c8742994fa78a6ea8ca3af6d29\animated-vector-drawable-24.2.0\AndroidManifest.xml:22:5-20
MERGED from [com.android.support:support-vector-drawable:24.2.0] C:\Users\mario\.gradle\caches\transforms-2\files-2.1\05827b50c1087358ece872f97f332a52\support-vector-drawable-24.2.0\AndroidManifest.xml:23:5-20
MERGED from [com.android.support:support-vector-drawable:24.2.0] C:\Users\mario\.gradle\caches\transforms-2\files-2.1\05827b50c1087358ece872f97f332a52\support-vector-drawable-24.2.0\AndroidManifest.xml:23:5-20
MERGED from [com.android.support:support-v4:24.2.0] C:\Users\mario\.gradle\caches\transforms-2\files-2.1\b0e55e3ddaf5656c134668b134d362b4\support-v4-24.2.0\AndroidManifest.xml:25:5-20
MERGED from [com.android.support:support-v4:24.2.0] C:\Users\mario\.gradle\caches\transforms-2\files-2.1\b0e55e3ddaf5656c134668b134d362b4\support-v4-24.2.0\AndroidManifest.xml:25:5-20
MERGED from [com.android.support:support-fragment:24.2.0] C:\Users\mario\.gradle\caches\transforms-2\files-2.1\c5c1f0618563402a555c964600c2c96f\support-fragment-24.2.0\AndroidManifest.xml:25:5-20
MERGED from [com.android.support:support-fragment:24.2.0] C:\Users\mario\.gradle\caches\transforms-2\files-2.1\c5c1f0618563402a555c964600c2c96f\support-fragment-24.2.0\AndroidManifest.xml:25:5-20
MERGED from [com.android.support:support-core-utils:24.2.0] C:\Users\mario\.gradle\caches\transforms-2\files-2.1\77c604c47a29aa817e38bacf44f8566c\support-core-utils-24.2.0\AndroidManifest.xml:25:5-20
MERGED from [com.android.support:support-core-utils:24.2.0] C:\Users\mario\.gradle\caches\transforms-2\files-2.1\77c604c47a29aa817e38bacf44f8566c\support-core-utils-24.2.0\AndroidManifest.xml:25:5-20
MERGED from [com.android.support:support-media-compat:24.2.0] C:\Users\mario\.gradle\caches\transforms-2\files-2.1\ec78044e96832e0b0535a1998dfe9a11\support-media-compat-24.2.0\AndroidManifest.xml:25:5-20
MERGED from [com.android.support:support-media-compat:24.2.0] C:\Users\mario\.gradle\caches\transforms-2\files-2.1\ec78044e96832e0b0535a1998dfe9a11\support-media-compat-24.2.0\AndroidManifest.xml:25:5-20
MERGED from [com.android.support:support-core-ui:24.2.0] C:\Users\mario\.gradle\caches\transforms-2\files-2.1\122a60a1be2d7350a0d1ccad64475eed\support-core-ui-24.2.0\AndroidManifest.xml:25:5-20
MERGED from [com.android.support:support-core-ui:24.2.0] C:\Users\mario\.gradle\caches\transforms-2\files-2.1\122a60a1be2d7350a0d1ccad64475eed\support-core-ui-24.2.0\AndroidManifest.xml:25:5-20
MERGED from [com.android.support:support-compat:24.2.0] C:\Users\mario\.gradle\caches\transforms-2\files-2.1\497b042d7fde88db6c2bd366aa27826c\support-compat-24.2.0\AndroidManifest.xml:25:5-20
MERGED from [com.android.support:support-compat:24.2.0] C:\Users\mario\.gradle\caches\transforms-2\files-2.1\497b042d7fde88db6c2bd366aa27826c\support-compat-24.2.0\AndroidManifest.xml:25:5-20
	android:label
		ADDED from C:\Users\mario\Escritorio\semestre 20-21\Dispositivos moviles\android-recipes-5ed-master\Code_Samples_Chapter_2\2_01_CoordinatorLayoutWithToolbar\src\main\AndroidManifest.xml:10:9-41
	android:icon
		ADDED from C:\Users\mario\Escritorio\semestre 20-21\Dispositivos moviles\android-recipes-5ed-master\Code_Samples_Chapter_2\2_01_CoordinatorLayoutWithToolbar\src\main\AndroidManifest.xml:9:9-45
	android:allowBackup
		ADDED from C:\Users\mario\Escritorio\semestre 20-21\Dispositivos moviles\android-recipes-5ed-master\Code_Samples_Chapter_2\2_01_CoordinatorLayoutWithToolbar\src\main\AndroidManifest.xml:8:9-35
activity#com.androidrecipes.actionbar.SupportActionActivity
ADDED from C:\Users\mario\Escritorio\semestre 20-21\Dispositivos moviles\android-recipes-5ed-master\Code_Samples_Chapter_2\2_01_CoordinatorLayoutWithToolbar\src\main\AndroidManifest.xml:11:9-20:20
	android:label
		ADDED from C:\Users\mario\Escritorio\semestre 20-21\Dispositivos moviles\android-recipes-5ed-master\Code_Samples_Chapter_2\2_01_CoordinatorLayoutWithToolbar\src\main\AndroidManifest.xml:13:13-52
	android:theme
		ADDED from C:\Users\mario\Escritorio\semestre 20-21\Dispositivos moviles\android-recipes-5ed-master\Code_Samples_Chapter_2\2_01_CoordinatorLayoutWithToolbar\src\main\AndroidManifest.xml:14:13-44
	android:name
		ADDED from C:\Users\mario\Escritorio\semestre 20-21\Dispositivos moviles\android-recipes-5ed-master\Code_Samples_Chapter_2\2_01_CoordinatorLayoutWithToolbar\src\main\AndroidManifest.xml:12:13-50
intent-filter#action:name:android.intent.action.MAIN+category:name:android.intent.category.LAUNCHER
ADDED from C:\Users\mario\Escritorio\semestre 20-21\Dispositivos moviles\android-recipes-5ed-master\Code_Samples_Chapter_2\2_01_CoordinatorLayoutWithToolbar\src\main\AndroidManifest.xml:15:13-19:29
action#android.intent.action.MAIN
ADDED from C:\Users\mario\Escritorio\semestre 20-21\Dispositivos moviles\android-recipes-5ed-master\Code_Samples_Chapter_2\2_01_CoordinatorLayoutWithToolbar\src\main\AndroidManifest.xml:16:17-68
	android:name
		ADDED from C:\Users\mario\Escritorio\semestre 20-21\Dispositivos moviles\android-recipes-5ed-master\Code_Samples_Chapter_2\2_01_CoordinatorLayoutWithToolbar\src\main\AndroidManifest.xml:16:25-66
category#android.intent.category.LAUNCHER
ADDED from C:\Users\mario\Escritorio\semestre 20-21\Dispositivos moviles\android-recipes-5ed-master\Code_Samples_Chapter_2\2_01_CoordinatorLayoutWithToolbar\src\main\AndroidManifest.xml:18:17-76
	android:name
		ADDED from C:\Users\mario\Escritorio\semestre 20-21\Dispositivos moviles\android-recipes-5ed-master\Code_Samples_Chapter_2\2_01_CoordinatorLayoutWithToolbar\src\main\AndroidManifest.xml:18:27-74
activity#com.androidrecipes.actionbar.SupportToolbarActivity
ADDED from C:\Users\mario\Escritorio\semestre 20-21\Dispositivos moviles\android-recipes-5ed-master\Code_Samples_Chapter_2\2_01_CoordinatorLayoutWithToolbar\src\main\AndroidManifest.xml:21:9-30:20
	android:label
		ADDED from C:\Users\mario\Escritorio\semestre 20-21\Dispositivos moviles\android-recipes-5ed-master\Code_Samples_Chapter_2\2_01_CoordinatorLayoutWithToolbar\src\main\AndroidManifest.xml:23:13-50
	android:theme
		ADDED from C:\Users\mario\Escritorio\semestre 20-21\Dispositivos moviles\android-recipes-5ed-master\Code_Samples_Chapter_2\2_01_CoordinatorLayoutWithToolbar\src\main\AndroidManifest.xml:24:13-51
	android:name
		ADDED from C:\Users\mario\Escritorio\semestre 20-21\Dispositivos moviles\android-recipes-5ed-master\Code_Samples_Chapter_2\2_01_CoordinatorLayoutWithToolbar\src\main\AndroidManifest.xml:22:13-51
uses-sdk
INJECTED from C:\Users\mario\Escritorio\semestre 20-21\Dispositivos moviles\android-recipes-5ed-master\Code_Samples_Chapter_2\2_01_CoordinatorLayoutWithToolbar\src\main\AndroidManifest.xml reason: use-sdk injection requested
INJECTED from C:\Users\mario\Escritorio\semestre 20-21\Dispositivos moviles\android-recipes-5ed-master\Code_Samples_Chapter_2\2_01_CoordinatorLayoutWithToolbar\src\main\AndroidManifest.xml
INJECTED from C:\Users\mario\Escritorio\semestre 20-21\Dispositivos moviles\android-recipes-5ed-master\Code_Samples_Chapter_2\2_01_CoordinatorLayoutWithToolbar\src\main\AndroidManifest.xml
MERGED from [com.android.support.constraint:constraint-layout:1.0.2] C:\Users\mario\.gradle\caches\transforms-2\files-2.1\b703eeb50455644a9f19e020c78f6a7d\constraint-layout-1.0.2\AndroidManifest.xml:5:5-7:41
MERGED from [com.android.support.constraint:constraint-layout:1.0.2] C:\Users\mario\.gradle\caches\transforms-2\files-2.1\b703eeb50455644a9f19e020c78f6a7d\constraint-layout-1.0.2\AndroidManifest.xml:5:5-7:41
MERGED from [com.android.support:design:24.2.0] C:\Users\mario\.gradle\caches\transforms-2\files-2.1\9bc8876ce161ddb2afb061d80692fbda\design-24.2.0\AndroidManifest.xml:20:5-43
MERGED from [com.android.support:design:24.2.0] C:\Users\mario\.gradle\caches\transforms-2\files-2.1\9bc8876ce161ddb2afb061d80692fbda\design-24.2.0\AndroidManifest.xml:20:5-43
MERGED from [com.android.support:appcompat-v7:24.2.0] C:\Users\mario\.gradle\caches\transforms-2\files-2.1\2aa129a25abc8722bb5e1735a1f49a5e\appcompat-v7-24.2.0\AndroidManifest.xml:21:5-23:78
MERGED from [com.android.support:appcompat-v7:24.2.0] C:\Users\mario\.gradle\caches\transforms-2\files-2.1\2aa129a25abc8722bb5e1735a1f49a5e\appcompat-v7-24.2.0\AndroidManifest.xml:21:5-23:78
MERGED from [com.android.support:animated-vector-drawable:24.2.0] C:\Users\mario\.gradle\caches\transforms-2\files-2.1\1e10b7c8742994fa78a6ea8ca3af6d29\animated-vector-drawable-24.2.0\AndroidManifest.xml:20:5-44
MERGED from [com.android.support:animated-vector-drawable:24.2.0] C:\Users\mario\.gradle\caches\transforms-2\files-2.1\1e10b7c8742994fa78a6ea8ca3af6d29\animated-vector-drawable-24.2.0\AndroidManifest.xml:20:5-44
MERGED from [com.android.support:support-vector-drawable:24.2.0] C:\Users\mario\.gradle\caches\transforms-2\files-2.1\05827b50c1087358ece872f97f332a52\support-vector-drawable-24.2.0\AndroidManifest.xml:21:5-43
MERGED from [com.android.support:support-vector-drawable:24.2.0] C:\Users\mario\.gradle\caches\transforms-2\files-2.1\05827b50c1087358ece872f97f332a52\support-vector-drawable-24.2.0\AndroidManifest.xml:21:5-43
MERGED from [com.android.support:support-v4:24.2.0] C:\Users\mario\.gradle\caches\transforms-2\files-2.1\b0e55e3ddaf5656c134668b134d362b4\support-v4-24.2.0\AndroidManifest.xml:21:5-23:54
MERGED from [com.android.support:support-v4:24.2.0] C:\Users\mario\.gradle\caches\transforms-2\files-2.1\b0e55e3ddaf5656c134668b134d362b4\support-v4-24.2.0\AndroidManifest.xml:21:5-23:54
MERGED from [com.android.support:recyclerview-v7:24.2.0] C:\Users\mario\.gradle\caches\transforms-2\files-2.1\e33e394c6030b3065b00462e23b3d39e\recyclerview-v7-24.2.0\AndroidManifest.xml:20:5-43
MERGED from [com.android.support:recyclerview-v7:24.2.0] C:\Users\mario\.gradle\caches\transforms-2\files-2.1\e33e394c6030b3065b00462e23b3d39e\recyclerview-v7-24.2.0\AndroidManifest.xml:20:5-43
MERGED from [com.android.support:support-fragment:24.2.0] C:\Users\mario\.gradle\caches\transforms-2\files-2.1\c5c1f0618563402a555c964600c2c96f\support-fragment-24.2.0\AndroidManifest.xml:21:5-23:60
MERGED from [com.android.support:support-fragment:24.2.0] C:\Users\mario\.gradle\caches\transforms-2\files-2.1\c5c1f0618563402a555c964600c2c96f\support-fragment-24.2.0\AndroidManifest.xml:21:5-23:60
MERGED from [com.android.support:support-core-utils:24.2.0] C:\Users\mario\.gradle\caches\transforms-2\files-2.1\77c604c47a29aa817e38bacf44f8566c\support-core-utils-24.2.0\AndroidManifest.xml:21:5-23:61
MERGED from [com.android.support:support-core-utils:24.2.0] C:\Users\mario\.gradle\caches\transforms-2\files-2.1\77c604c47a29aa817e38bacf44f8566c\support-core-utils-24.2.0\AndroidManifest.xml:21:5-23:61
MERGED from [com.android.support:support-media-compat:24.2.0] C:\Users\mario\.gradle\caches\transforms-2\files-2.1\ec78044e96832e0b0535a1998dfe9a11\support-media-compat-24.2.0\AndroidManifest.xml:21:5-23:63
MERGED from [com.android.support:support-media-compat:24.2.0] C:\Users\mario\.gradle\caches\transforms-2\files-2.1\ec78044e96832e0b0535a1998dfe9a11\support-media-compat-24.2.0\AndroidManifest.xml:21:5-23:63
MERGED from [com.android.support:support-core-ui:24.2.0] C:\Users\mario\.gradle\caches\transforms-2\files-2.1\122a60a1be2d7350a0d1ccad64475eed\support-core-ui-24.2.0\AndroidManifest.xml:21:5-23:58
MERGED from [com.android.support:support-core-ui:24.2.0] C:\Users\mario\.gradle\caches\transforms-2\files-2.1\122a60a1be2d7350a0d1ccad64475eed\support-core-ui-24.2.0\AndroidManifest.xml:21:5-23:58
MERGED from [com.android.support:support-compat:24.2.0] C:\Users\mario\.gradle\caches\transforms-2\files-2.1\497b042d7fde88db6c2bd366aa27826c\support-compat-24.2.0\AndroidManifest.xml:21:5-23:58
MERGED from [com.android.support:support-compat:24.2.0] C:\Users\mario\.gradle\caches\transforms-2\files-2.1\497b042d7fde88db6c2bd366aa27826c\support-compat-24.2.0\AndroidManifest.xml:21:5-23:58
INJECTED from C:\Users\mario\Escritorio\semestre 20-21\Dispositivos moviles\android-recipes-5ed-master\Code_Samples_Chapter_2\2_01_CoordinatorLayoutWithToolbar\src\main\AndroidManifest.xml
INJECTED from C:\Users\mario\Escritorio\semestre 20-21\Dispositivos moviles\android-recipes-5ed-master\Code_Samples_Chapter_2\2_01_CoordinatorLayoutWithToolbar\src\main\AndroidManifest.xml
	tools:overrideLibrary
		ADDED from [com.android.support:appcompat-v7:24.2.0] C:\Users\mario\.gradle\caches\transforms-2\files-2.1\2aa129a25abc8722bb5e1735a1f49a5e\appcompat-v7-24.2.0\AndroidManifest.xml:23:9-75
	android:targetSdkVersion
		INJECTED from C:\Users\mario\Escritorio\semestre 20-21\Dispositivos moviles\android-recipes-5ed-master\Code_Samples_Chapter_2\2_01_CoordinatorLayoutWithToolbar\src\main\AndroidManifest.xml
		ADDED from C:\Users\mario\Escritorio\semestre 20-21\Dispositivos moviles\android-recipes-5ed-master\Code_Samples_Chapter_2\2_01_CoordinatorLayoutWithToolbar\src\main\AndroidManifest.xml
		INJECTED from C:\Users\mario\Escritorio\semestre 20-21\Dispositivos moviles\android-recipes-5ed-master\Code_Samples_Chapter_2\2_01_CoordinatorLayoutWithToolbar\src\main\AndroidManifest.xml
	android:minSdkVersion
		INJECTED from C:\Users\mario\Escritorio\semestre 20-21\Dispositivos moviles\android-recipes-5ed-master\Code_Samples_Chapter_2\2_01_CoordinatorLayoutWithToolbar\src\main\AndroidManifest.xml
		ADDED from C:\Users\mario\Escritorio\semestre 20-21\Dispositivos moviles\android-recipes-5ed-master\Code_Samples_Chapter_2\2_01_CoordinatorLayoutWithToolbar\src\main\AndroidManifest.xml
		INJECTED from C:\Users\mario\Escritorio\semestre 20-21\Dispositivos moviles\android-recipes-5ed-master\Code_Samples_Chapter_2\2_01_CoordinatorLayoutWithToolbar\src\main\AndroidManifest.xml
